index.qmd
…
read_csv(here::here("data/raw/watermopupandbaselinenmisfacility.csv"))

Rows: 132510 Columns: 17
── Column specification ────────────────────────────────────────────────────────
Delimiter: ","
chr  (12): water_point_type, community, ward, breakdown, lift_mechanism, fac...
dbl   (2): latitude, longitude
lgl   (2): is_improved, functional
date  (1): date_of_survey

ℹ Use `spec()` to retrieve the full column specification for this data.
ℹ Specify the column types or set `show_col_types = FALSE` to quiet this message.

# A tibble: 132,510 × 17
   water_point_type date_of_survey community        ward  is_improved functional
   <chr>            <date>         <chr>            <chr> <lgl>       <lgl>     
 1 Borehole         2012-07-29     DABAI SEME       RUMU… TRUE        FALSE     
 2 Unimproved Well  2012-07-29     Gogadi           Sanc… FALSE       TRUE      
 3 Borehole         2012-07-28     UNGWAR SARKIN F… ZODI  TRUE        FALSE     
 4 Borehole         2012-07-28     Kobo             Bedi  TRUE        TRUE      
 5 Borehole         2012-07-29     Kware            Sanc… TRUE        TRUE      
 6 Borehole         2012-07-30     Dabai            Chor… TRUE        TRUE      
 7 Unimproved Well  2012-07-29     DIGWABA          RUMU… FALSE       TRUE      
 8 Unimproved Well  2012-07-29     DIPASA           RUMU… FALSE       FALSE     
 9 Borehole         2012-07-29     TUNGA KIBIYA     SANCI TRUE        FALSE     
10 Borehole         2012-07-30     Kori Gani        Chir… TRUE        TRUE      
# ℹ 132,500 more rows
# ℹ 11 more variables: breakdown <chr>, lift_mechanism <chr>,
#   facility_id <chr>, sector <chr>, facility_name <chr>,
#   formhub_photo_id <chr>, gps <chr>, survey_id <chr>, unique_lga <chr>,
#   latitude <dbl>, longitude <dbl>
…
